{
	"drinks": [
		{
			"idDrink": "178368",
			"strDrink": "Planter\u2019s Punch",
			"strDrinkAlternate": null,
			"strTags": null,
			"strVideo": null,
			"strCategory": "Cocktail",
			"strIBA": null,
			"strAlcoholic": "Alcoholic",
			"strGlass": "Highball glass",
			"strInstructions": "Squeeze an orange and strain the juice. Put all the ingredients in a shaker filled with ice and shake for at least 12 seconds. Strain into a highball glass and decorate with a pineapple wedge or fruit of your choice.",
			"strInstructionsES": null,
			"strInstructionsDE": "Eine Orange auspressen und den Saft abseihen. Alle Zutaten in einen mit Eis gef\u00fcllten Shaker geben und mindestens 12 Sekunden sch\u00fctteln. In ein Longdrinkglas abseihen und mit einer Ananasscheibe oder Fr\u00fcchten Ihrer Wahl dekorieren.",
			"strInstructionsFR": null,
			"strInstructionsIT": "Spremete un\u2019arancia e filtratene il succo. Mettete tutti gli ingredienti in uno shaker colmo di ghiaccio e agitate per almeno 12 secondi. Versate filtrando in un bicchiere highball e decorate con uno spicchio d\u2019ananas o frutta a piacere.",
			"strInstructionsZH-HANS": null,
			"strInstructionsZH-HANT": null,
			"strDrinkThumb": "https://www.thecocktaildb.com/images/media/drink/jn6o251643844541.jpg",
			"strIngredient1": "Dark Rum",
			"strIngredient2": "Orange Juice",
			"strIngredient3": "Pineapple Juice",
			"strIngredient4": "Grenadine",
			"strIngredient5": "Sugar Syrup",
			"strIngredient6": "Angostura Bitters",
			"strIngredient7": null,
			"strIngredient8": null,
			"strIngredient9": null,
			"strIngredient10": null,
			"strIngredient11": null,
			"strIngredient12": null,
			"strIngredient13": null,
			"strIngredient14": null,
			"strIngredient15": null,
			"strMeasure1": "4.5 cL",
			"strMeasure2": "3 cl",
			"strMeasure3": "3.5 cl",
			"strMeasure4": "1 cl",
			"strMeasure5": "1 cl",
			"strMeasure6": "4 drops",
			"strMeasure7": "",
			"strMeasure8": null,
			"strMeasure9": null,
			"strMeasure10": null,
			"strMeasure11": null,
			"strMeasure12": null,
			"strMeasure13": null,
			"strMeasure14": null,
			"strMeasure15": null,
			"strImageSource": "https://upload.wikimedia.org/wikipedia/commons/1/10/Planters_Punch_2.jpg",
			"strImageAttribution": null,
			"strCreativeCommonsConfirmed": "No",
			"dateModified": null
		}
	]
}
